{
  "name": "Cricket",
  "plural": "Team",
  "base": "PersistedModel",
  "idInjection": true,
  "options": {
    "validateUpsert": true
  },
  "properties": {
    "Batting_order": {
      "type": "string",
      "required": true,
      "default": "Virat_kohli"
    },
    "Bowling": {
      "type": "string",
      "required": true
    }
  },
  "validations": [],
  "relations": {},
  "acls": [],
  "methods": {}
}
